{
  "total": {{total}},
  "rows": [
    {% for persona in personas %}
      {
        "id": {{persona.id}},
        "nombres": "{{persona.nombreCompleto}}"
      }{% if not forloop.last %},{% endif %}
    {% endfor %}
  ]
}
