{
  "total": {{total}},
  "rows": [
    {% for caserio in caserios %}
      {
        "id": {{caserio.id}},
        "codigo": "{{caserio.codigo}}",
        "nombre": "{{caserio.nombre}}",
        "centropoblado": "{{caserio.centropoblado}}"
      }{% if not forloop.last %},{% endif %}
    {% endfor %}
  ]
}
