{
  "total": {{total}},
  "rows": [
    {% for df in divisionfuncional %}
      {
        "id": {{df.id}},
        "nombre": "{{df.nombre}}"
      }{% if not forloop.last %},{% endif %}
    {% endfor %}
  ]
}
