{
  "total": {{total}},
  "rows": [
    {% for especialidad in especialidades %}
      {
        "id": {{especialidad.id}},
        "nombre": "{{especialidad.nombre}}"
      }{% if not forloop.last %},{% endif %}
    {% endfor %}
  ]
}
