{
  "total": {{ total }},
  "rows": [
    {% for raza in razas %}
      {
        "id": {{ raza.id }},
        "nombre": "{{ raza.nombre }}",
        "especie": "{{ raza.especie }}"
      }{% if not forloop.last %},{% endif %}
    {% endfor %}
  ]
}
