{
  "total": {{total}},
  "rows": [
    {% for area in areas %}
      {
        "id": {{area.id}},
        "nombre": "{{area.nombre}}",
        "abreviatura": "{{area.abreviatura}}",
        "estado": "{{area.estado|yesno:'Activo,Inactivo'}}",
        "esagencia": "{{area.esagencia|yesno:'Si,No'}}"
      }{% if not forloop.last %},{% endif %}
    {% endfor %}
  ]
}
