{
  "total": {{total}},
  "rows": [
    {% for funcioncargo in funcionescargos %}
      {
        "id": {{funcioncargo.id}},
        "nombre": "{{funcioncargo.nombre}}"
      }{% if not forloop.last %},{% endif %}
    {% endfor %}
  ]
}
