{
  "total": {{total}},
  "rows": [
    {% for subactividad in subactividades %}
      {
        "id": {{subactividad.id}},
        "nombre": "{{subactividad.subactividadcatalogo.nombre}}",
        "codigo": "{{subactividad.codigo}}",
        "unidadmedida": "{{subactividad.unidadmedida.nombre}}",
        "indicador": "{{subactividad.indicador.nombre}}"
      }{% if not forloop.last %},{% endif %}
    {% endfor %}
  ]
}