{
  "total": {{total}},
  "rows": [
    {% for ejeecon in ejesecons %}
      {
        "id": {{ejeecon.id}},
        "nombre": "{{ejeecon.nombre}}",
        "descripcion": "{{ejeecon.descripcion|escapejs}}",
        "estado": "{{ejeecon.estado|yesno:'Activo,Inactivo'}}"
      }{% if not forloop.last %},{% endif %}
    {% endfor %}
  ]
}
