{
  "total": {{total}},
  "rows": [
    {% for unidadmedida in unidadesmedidas %}
      {
        "id": {{unidadmedida.id}},
        "nombre": "{{unidadmedida.nombre}}",
        "abreviatura": "{{unidadmedida.abreviatura}}"
      }{% if not forloop.last %},{% endif %}
    {% endfor %}
  ]
}
