{
  "total": {{total}},
  "rows": [
    {% for variedadcatalogo in variedadescatalogos %}
      {
        "id": {{variedadcatalogo.id}},
        "nombre": "{{variedadcatalogo.nombre}}"
      }{% if not forloop.last %},{% endif %}
    {% endfor %}
  ]
}
