{
  "total": {{total}},
  "rows": [
    {% for mes in mes %}
      {
        "id": {{mes.id}},
        "numero": "{{mes.numero}}",
        "nombre": "{{mes.nombre}}"
      }{% if not forloop.last %} ,{% endif %}
    {% endfor %}
  ]
}
